[{"line":1,"elements":[{"line":3,"name":"","description":"","type":"background","keyword":"Background","steps":[{"name":"url 'https:\/\/reqres.in\/api'","result":{"duration":25904171,"status":"passed"},"match":{"location":"karate","arguments":[]},"keyword":"*","line":4,"doc_string":{"content_type":"","value":"00:12:44.646 skipping bootstrap configuration: could not find or read file: classpath:karate-config.js","line":4}},{"name":"header content-type = 'aplication\/json'","result":{"duration":287834,"status":"passed"},"match":{"location":"karate","arguments":[]},"keyword":"*","line":5}]},{"line":7,"name":"get list of users","description":"","id":"get-list-of-users","type":"scenario","keyword":"Scenario","steps":[{"name":"path 'users'","result":{"duration":444581,"status":"passed"},"match":{"location":"karate","arguments":[]},"keyword":"Given","line":8},{"name":"param page = 2","result":{"duration":510825,"status":"passed"},"match":{"location":"karate","arguments":[]},"keyword":"And","line":9},{"name":"method get","result":{"duration":2901683762,"status":"passed"},"match":{"location":"karate","arguments":[]},"keyword":"When","line":10,"doc_string":{"content_type":"","value":"00:12:45.625 request:\n1 > GET https:\/\/reqres.in\/api\/users?page=2\n1 > Accept-Encoding: gzip,deflate\n1 > Connection: Keep-Alive\n1 > Host: reqres.in\n1 > User-Agent: Apache-HttpClient\/4.5.11 (Java\/1.8.0_91)\n1 > content-type: aplication\/json\n\n00:12:47.356 response time in milliseconds: 1715.29\n1 < 200\n1 < Access-Control-Allow-Origin: *\n1 < Age: 2558\n1 < CF-Cache-Status: HIT\n1 < CF-RAY: 58dc1fc498d6063d-LHR\n1 < Cache-Control: max-age=14400\n1 < Connection: keep-alive\n1 < Content-Type: application\/json; charset=utf-8\n1 < Date: Sun, 03 May 2020 18:42:49 GMT\n1 < Etag: W\/\"4dd-IPv5LdOOb6s5S9E3i59wBCJ1k\/0\"\n1 < Expect-CT: max-age=604800, report-uri=\"https:\/\/report-uri.cloudflare.com\/cdn-cgi\/beacon\/expect-ct\"\n1 < Server: cloudflare\n1 < Set-Cookie: __cfduid=d6fb070d6ac41f75d18e617d866595bf41588531369; expires=Tue, 02-Jun-20 18:42:49 GMT; path=\/; domain=.reqres.in; HttpOnly; SameSite=Lax; Secure\n1 < Transfer-Encoding: chunked\n1 < Vary: Accept-Encoding\n1 < Via: 1.1 vegur\n1 < X-Powered-By: Express\n1 < cf-request-id: 027d722ee20000063d8c98f200000001\n{\"page\":2,\"per_page\":6,\"total\":12,\"total_pages\":2,\"data\":[{\"id\":7,\"email\":\"michael.lawson@reqres.in\",\"first_name\":\"Michael\",\"last_name\":\"Lawson\",\"avatar\":\"https:\/\/s3.amazonaws.com\/uifaces\/faces\/twitter\/follettkyle\/128.jpg\"},{\"id\":8,\"email\":\"lindsay.ferguson@reqres.in\",\"first_name\":\"Lindsay\",\"last_name\":\"Ferguson\",\"avatar\":\"https:\/\/s3.amazonaws.com\/uifaces\/faces\/twitter\/araa3185\/128.jpg\"},{\"id\":9,\"email\":\"tobias.funke@reqres.in\",\"first_name\":\"Tobias\",\"last_name\":\"Funke\",\"avatar\":\"https:\/\/s3.amazonaws.com\/uifaces\/faces\/twitter\/vivekprvr\/128.jpg\"},{\"id\":10,\"email\":\"byron.fields@reqres.in\",\"first_name\":\"Byron\",\"last_name\":\"Fields\",\"avatar\":\"https:\/\/s3.amazonaws.com\/uifaces\/faces\/twitter\/russoedu\/128.jpg\"},{\"id\":11,\"email\":\"george.edwards@reqres.in\",\"first_name\":\"George\",\"last_name\":\"Edwards\",\"avatar\":\"https:\/\/s3.amazonaws.com\/uifaces\/faces\/twitter\/mrmoiree\/128.jpg\"},{\"id\":12,\"email\":\"rachel.howell@reqres.in\",\"first_name\":\"Rachel\",\"last_name\":\"Howell\",\"avatar\":\"https:\/\/s3.amazonaws.com\/uifaces\/faces\/twitter\/hebertialmeida\/128.jpg\"}],\"ad\":{\"company\":\"StatusCode Weekly\",\"url\":\"http:\/\/statuscode.org\/\",\"text\":\"A weekly newsletter focusing on software development, infrastructure, the server, performance, and the stack end of things.\"}}","line":10}},{"name":"status 200","result":{"duration":27991,"status":"passed"},"match":{"location":"karate","arguments":[]},"keyword":"Then","line":11}]}],"name":"examples\/users\/userdetails.feature","description":"get all user details","id":"get-all-user-details","keyword":"Feature","uri":"examples\/users\/userdetails.feature"}]