[{"line":1,"elements":[{"line":4,"name":"","description":"","type":"background","keyword":"Background","steps":[{"name":"url 'https:\/\/reqres.in\/api'","result":{"duration":43526453,"status":"passed"},"match":{"location":"karate","arguments":[]},"keyword":"*","line":5,"doc_string":{"content_type":"","value":"00:12:44.645 skipping bootstrap configuration: could not find or read file: classpath:karate-config.js","line":5}},{"name":"header content-type = 'aplication\/json'","result":{"duration":547212,"status":"passed"},"match":{"location":"karate","arguments":[]},"keyword":"*","line":6}]},{"line":9,"name":"get user of with total number of 2 pages","description":"","id":"get-user-of-with-total-number-of-2-pages","type":"scenario","keyword":"Scenario","steps":[{"name":"path 'users'","result":{"duration":281303,"status":"passed"},"match":{"location":"karate","arguments":[]},"keyword":"Given","line":10},{"name":"param page = 2","result":{"duration":201997,"status":"passed"},"match":{"location":"karate","arguments":[]},"keyword":"And","line":11},{"name":"method get","result":{"duration":2912491783,"status":"passed"},"match":{"location":"karate","arguments":[]},"keyword":"When","line":12,"doc_string":{"content_type":"","value":"00:12:45.626 request:\n1 > GET https:\/\/reqres.in\/api\/users?page=2\n1 > Accept-Encoding: gzip,deflate\n1 > Connection: Keep-Alive\n1 > Host: reqres.in\n1 > User-Agent: Apache-HttpClient\/4.5.11 (Java\/1.8.0_91)\n1 > content-type: aplication\/json\n\n00:12:47.385 response time in milliseconds: 1705.46\n1 < 200\n1 < Access-Control-Allow-Origin: *\n1 < Age: 2558\n1 < CF-Cache-Status: HIT\n1 < CF-RAY: 58dc1fc4cb2ece5f-LHR\n1 < Cache-Control: max-age=14400\n1 < Connection: keep-alive\n1 < Content-Type: application\/json; charset=utf-8\n1 < Date: Sun, 03 May 2020 18:42:49 GMT\n1 < Etag: W\/\"4dd-IPv5LdOOb6s5S9E3i59wBCJ1k\/0\"\n1 < Expect-CT: max-age=604800, report-uri=\"https:\/\/report-uri.cloudflare.com\/cdn-cgi\/beacon\/expect-ct\"\n1 < Server: cloudflare\n1 < Set-Cookie: __cfduid=d1a489cd13e5970bb7881fbda0e447ec81588531369; expires=Tue, 02-Jun-20 18:42:49 GMT; path=\/; domain=.reqres.in; HttpOnly; SameSite=Lax; Secure\n1 < Transfer-Encoding: chunked\n1 < Vary: Accept-Encoding\n1 < Via: 1.1 vegur\n1 < X-Powered-By: Express\n1 < cf-request-id: 027d722efa0000ce5fd80f1200000001\n{\"page\":2,\"per_page\":6,\"total\":12,\"total_pages\":2,\"data\":[{\"id\":7,\"email\":\"michael.lawson@reqres.in\",\"first_name\":\"Michael\",\"last_name\":\"Lawson\",\"avatar\":\"https:\/\/s3.amazonaws.com\/uifaces\/faces\/twitter\/follettkyle\/128.jpg\"},{\"id\":8,\"email\":\"lindsay.ferguson@reqres.in\",\"first_name\":\"Lindsay\",\"last_name\":\"Ferguson\",\"avatar\":\"https:\/\/s3.amazonaws.com\/uifaces\/faces\/twitter\/araa3185\/128.jpg\"},{\"id\":9,\"email\":\"tobias.funke@reqres.in\",\"first_name\":\"Tobias\",\"last_name\":\"Funke\",\"avatar\":\"https:\/\/s3.amazonaws.com\/uifaces\/faces\/twitter\/vivekprvr\/128.jpg\"},{\"id\":10,\"email\":\"byron.fields@reqres.in\",\"first_name\":\"Byron\",\"last_name\":\"Fields\",\"avatar\":\"https:\/\/s3.amazonaws.com\/uifaces\/faces\/twitter\/russoedu\/128.jpg\"},{\"id\":11,\"email\":\"george.edwards@reqres.in\",\"first_name\":\"George\",\"last_name\":\"Edwards\",\"avatar\":\"https:\/\/s3.amazonaws.com\/uifaces\/faces\/twitter\/mrmoiree\/128.jpg\"},{\"id\":12,\"email\":\"rachel.howell@reqres.in\",\"first_name\":\"Rachel\",\"last_name\":\"Howell\",\"avatar\":\"https:\/\/s3.amazonaws.com\/uifaces\/faces\/twitter\/hebertialmeida\/128.jpg\"}],\"ad\":{\"company\":\"StatusCode Weekly\",\"url\":\"http:\/\/statuscode.org\/\",\"text\":\"A weekly newsletter focusing on software development, infrastructure, the server, performance, and the stack end of things.\"}}","line":12}},{"name":"status 200","result":{"duration":28457,"status":"passed"},"match":{"location":"karate","arguments":[]},"keyword":"Then","line":13},{"name":"def data = response.data","result":{"duration":160244506,"status":"passed"},"match":{"location":"karate","arguments":[]},"keyword":"*","line":14},{"name":"print 'data - >',data","result":{"duration":165406866,"status":"passed"},"match":{"location":"karate","arguments":[]},"keyword":"*","line":15,"doc_string":{"content_type":"","value":"00:12:47.957 [print] data - > [\n  {\n    \"last_name\": \"Lawson\",\n    \"id\": 7,\n    \"avatar\": \"https:\/\/s3.amazonaws.com\/uifaces\/faces\/twitter\/follettkyle\/128.jpg\",\n    \"first_name\": \"Michael\",\n    \"email\": \"michael.lawson@reqres.in\"\n  },\n  {\n    \"last_name\": \"Ferguson\",\n    \"id\": 8,\n    \"avatar\": \"https:\/\/s3.amazonaws.com\/uifaces\/faces\/twitter\/araa3185\/128.jpg\",\n    \"first_name\": \"Lindsay\",\n    \"email\": \"lindsay.ferguson@reqres.in\"\n  },\n  {\n    \"last_name\": \"Funke\",\n    \"id\": 9,\n    \"avatar\": \"https:\/\/s3.amazonaws.com\/uifaces\/faces\/twitter\/vivekprvr\/128.jpg\",\n    \"first_name\": \"Tobias\",\n    \"email\": \"tobias.funke@reqres.in\"\n  },\n  {\n    \"last_name\": \"Fields\",\n    \"id\": 10,\n    \"avatar\": \"https:\/\/s3.amazonaws.com\/uifaces\/faces\/twitter\/russoedu\/128.jpg\",\n    \"first_name\": \"Byron\",\n    \"email\": \"byron.fields@reqres.in\"\n  },\n  {\n    \"last_name\": \"Edwards\",\n    \"id\": 11,\n    \"avatar\": \"https:\/\/s3.amazonaws.com\/uifaces\/faces\/twitter\/mrmoiree\/128.jpg\",\n    \"first_name\": \"George\",\n    \"email\": \"george.edwards@reqres.in\"\n  },\n  {\n    \"last_name\": \"Howell\",\n    \"id\": 12,\n    \"avatar\": \"https:\/\/s3.amazonaws.com\/uifaces\/faces\/twitter\/hebertialmeida\/128.jpg\",\n    \"first_name\": \"Rachel\",\n    \"email\": \"rachel.howell@reqres.in\"\n  }\n]","line":15}}]},{"line":4,"name":"","description":"","type":"background","keyword":"Background","steps":[{"name":"url 'https:\/\/reqres.in\/api'","result":{"duration":295299,"status":"passed"},"match":{"location":"karate","arguments":[]},"keyword":"*","line":5,"doc_string":{"content_type":"","value":"00:12:44.645 skipping bootstrap configuration: could not find or read file: classpath:karate-config.js","line":5}},{"name":"header content-type = 'aplication\/json'","result":{"duration":30546844,"status":"passed"},"match":{"location":"karate","arguments":[]},"keyword":"*","line":6}]},{"line":30,"name":"get user with id 1","description":"","id":"get-user-with-id-1","type":"scenario","keyword":"Scenario Outline","steps":[{"name":"path 'users',1","result":{"duration":10231886,"status":"passed"},"match":{"location":"karate","arguments":[]},"keyword":"Given","line":20},{"name":"method get","result":{"duration":2846898641,"status":"passed"},"match":{"location":"karate","arguments":[]},"keyword":"When","line":21,"doc_string":{"content_type":"","value":"00:12:45.624 request:\n1 > GET https:\/\/reqres.in\/api\/users\/1\n1 > Accept-Encoding: gzip,deflate\n1 > Connection: Keep-Alive\n1 > Host: reqres.in\n1 > User-Agent: Apache-HttpClient\/4.5.11 (Java\/1.8.0_91)\n1 > content-type: aplication\/json\n\n00:12:47.351 response time in milliseconds: 1713.44\n1 < 200\n1 < Access-Control-Allow-Origin: *\n1 < Age: 1591\n1 < CF-Cache-Status: HIT\n1 < CF-RAY: 58dc1fc4cb9ae5fc-LHR\n1 < Cache-Control: max-age=14400\n1 < Connection: keep-alive\n1 < Content-Type: application\/json; charset=utf-8\n1 < Date: Sun, 03 May 2020 18:42:49 GMT\n1 < Etag: W\/\"172-2ZZzAny\/UrOMYxwGqcj81wSK1S4\"\n1 < Expect-CT: max-age=604800, report-uri=\"https:\/\/report-uri.cloudflare.com\/cdn-cgi\/beacon\/expect-ct\"\n1 < Server: cloudflare\n1 < Set-Cookie: __cfduid=d5219c18e00a58a64de0aca89042142711588531369; expires=Tue, 02-Jun-20 18:42:49 GMT; path=\/; domain=.reqres.in; HttpOnly; SameSite=Lax; Secure\n1 < Transfer-Encoding: chunked\n1 < Vary: Accept-Encoding\n1 < Via: 1.1 vegur\n1 < X-Powered-By: Express\n1 < cf-request-id: 027d722ef80000e5fc92b43200000001\n{\"data\":{\"id\":1,\"email\":\"george.bluth@reqres.in\",\"first_name\":\"George\",\"last_name\":\"Bluth\",\"avatar\":\"https:\/\/s3.amazonaws.com\/uifaces\/faces\/twitter\/calebogden\/128.jpg\"},\"ad\":{\"company\":\"StatusCode Weekly\",\"url\":\"http:\/\/statuscode.org\/\",\"text\":\"A weekly newsletter focusing on software development, infrastructure, the server, performance, and the stack end of things.\"}}","line":21}},{"name":"status 200","result":{"duration":61579,"status":"passed"},"match":{"location":"karate","arguments":[]},"keyword":"Then","line":22},{"name":"def data = response.data","result":{"duration":261540787,"status":"passed"},"match":{"location":"karate","arguments":[]},"keyword":"*","line":23},{"name":"print 'id : ',data.id","result":{"duration":29069417,"status":"passed"},"match":{"location":"karate","arguments":[]},"keyword":"*","line":24,"doc_string":{"content_type":"","value":"00:12:47.856 [print] id :  1","line":24}},{"name":"print 'email id :',data.email","result":{"duration":43544180,"status":"passed"},"match":{"location":"karate","arguments":[]},"keyword":"*","line":25,"doc_string":{"content_type":"","value":"00:12:47.900 [print] email id : george.bluth@reqres.in","line":25}}]},{"line":4,"name":"","description":"","type":"background","keyword":"Background","steps":[{"name":"url 'https:\/\/reqres.in\/api'","result":{"duration":390466,"status":"passed"},"match":{"location":"karate","arguments":[]},"keyword":"*","line":5,"doc_string":{"content_type":"","value":"00:12:44.641 skipping bootstrap configuration: could not find or read file: classpath:karate-config.js","line":5}},{"name":"header content-type = 'aplication\/json'","result":{"duration":9690738,"status":"passed"},"match":{"location":"karate","arguments":[]},"keyword":"*","line":6}]},{"line":31,"name":"get user with id 2","description":"","id":"get-user-with-id-2","type":"scenario","keyword":"Scenario Outline","steps":[{"name":"path 'users',2","result":{"duration":13343951,"status":"passed"},"match":{"location":"karate","arguments":[]},"keyword":"Given","line":20},{"name":"method get","result":{"duration":3173425179,"status":"passed"},"match":{"location":"karate","arguments":[]},"keyword":"When","line":21,"doc_string":{"content_type":"","value":"00:12:45.628 request:\n1 > GET https:\/\/reqres.in\/api\/users\/2\n1 > Accept-Encoding: gzip,deflate\n1 > Connection: Keep-Alive\n1 > Host: reqres.in\n1 > User-Agent: Apache-HttpClient\/4.5.11 (Java\/1.8.0_91)\n1 > content-type: aplication\/json\n\n00:12:47.406 response time in milliseconds: 1704.54\n1 < 200\n1 < Access-Control-Allow-Origin: *\n1 < Age: 6155\n1 < CF-Cache-Status: HIT\n1 < CF-RAY: 58dc1fc49f8adc13-LHR\n1 < Cache-Control: max-age=14400\n1 < Connection: keep-alive\n1 < Content-Type: application\/json; charset=utf-8\n1 < Date: Sun, 03 May 2020 18:42:49 GMT\n1 < Etag: W\/\"173-1Z8bn0V7UjH6FK7NCaza1ccWXQk\"\n1 < Expect-CT: max-age=604800, report-uri=\"https:\/\/report-uri.cloudflare.com\/cdn-cgi\/beacon\/expect-ct\"\n1 < Server: cloudflare\n1 < Set-Cookie: __cfduid=d4800ba2da0bb164c121a35b6b899e0811588531369; expires=Tue, 02-Jun-20 18:42:49 GMT; path=\/; domain=.reqres.in; HttpOnly; SameSite=Lax; Secure\n1 < Transfer-Encoding: chunked\n1 < Vary: Accept-Encoding\n1 < Via: 1.1 vegur\n1 < X-Powered-By: Express\n1 < cf-request-id: 027d722edb0000dc136fa6b200000001\n{\"data\":{\"id\":2,\"email\":\"janet.weaver@reqres.in\",\"first_name\":\"Janet\",\"last_name\":\"Weaver\",\"avatar\":\"https:\/\/s3.amazonaws.com\/uifaces\/faces\/twitter\/josephstein\/128.jpg\"},\"ad\":{\"company\":\"StatusCode Weekly\",\"url\":\"http:\/\/statuscode.org\/\",\"text\":\"A weekly newsletter focusing on software development, infrastructure, the server, performance, and the stack end of things.\"}}","line":21}},{"name":"status 200","result":{"duration":19594,"status":"passed"},"match":{"location":"karate","arguments":[]},"keyword":"Then","line":22},{"name":"def data = response.data","result":{"duration":38219009,"status":"passed"},"match":{"location":"karate","arguments":[]},"keyword":"*","line":23},{"name":"print 'id : ',data.id","result":{"duration":3635019,"status":"passed"},"match":{"location":"karate","arguments":[]},"keyword":"*","line":24,"doc_string":{"content_type":"","value":"00:12:47.910 [print] id :  2","line":24}},{"name":"print 'email id :',data.email","result":{"duration":9941253,"status":"passed"},"match":{"location":"karate","arguments":[]},"keyword":"*","line":25,"doc_string":{"content_type":"","value":"00:12:47.920 [print] email id : janet.weaver@reqres.in","line":25}}]},{"line":4,"name":"","description":"","type":"background","keyword":"Background","steps":[{"name":"url 'https:\/\/reqres.in\/api'","result":{"duration":495897,"status":"passed"},"match":{"location":"karate","arguments":[]},"keyword":"*","line":5,"doc_string":{"content_type":"","value":"00:12:47.629 skipping bootstrap configuration: could not find or read file: classpath:karate-config.js","line":5}},{"name":"header content-type = 'aplication\/json'","result":{"duration":162786033,"status":"passed"},"match":{"location":"karate","arguments":[]},"keyword":"*","line":6}]},{"line":34,"name":"get list of users","description":"","id":"get-list-of-users","type":"scenario","keyword":"Scenario","steps":[{"name":"path 'unknown'","result":{"duration":16629556,"status":"passed"},"match":{"location":"karate","arguments":[]},"keyword":"Given","line":35},{"name":"method get","result":{"duration":461160304,"status":"passed"},"match":{"location":"karate","arguments":[]},"keyword":"When","line":36,"doc_string":{"content_type":"","value":"00:12:47.824 request:\n1 > GET https:\/\/reqres.in\/api\/unknown\n1 > Accept-Encoding: gzip,deflate\n1 > Connection: Keep-Alive\n1 > Host: reqres.in\n1 > User-Agent: Apache-HttpClient\/4.5.11 (Java\/1.8.0_91)\n1 > content-type: aplication\/json\n\n00:12:48.267 response time in milliseconds: 439.81\n1 < 200\n1 < Access-Control-Allow-Origin: *\n1 < Age: 1143\n1 < CF-Cache-Status: HIT\n1 < CF-RAY: 58dc1fcaab8f0662-LHR\n1 < Cache-Control: max-age=14400\n1 < Connection: keep-alive\n1 < Content-Type: application\/json; charset=utf-8\n1 < Date: Sun, 03 May 2020 18:42:50 GMT\n1 < Etag: W\/\"301-ijGNEim\/mAI7LpbQIXyQc2bjt+k\"\n1 < Expect-CT: max-age=604800, report-uri=\"https:\/\/report-uri.cloudflare.com\/cdn-cgi\/beacon\/expect-ct\"\n1 < Server: cloudflare\n1 < Set-Cookie: __cfduid=da0d536d2b4ccd19267169a4d1987b2081588531370; expires=Tue, 02-Jun-20 18:42:50 GMT; path=\/; domain=.reqres.in; HttpOnly; SameSite=Lax; Secure\n1 < Transfer-Encoding: chunked\n1 < Vary: Accept-Encoding\n1 < Via: 1.1 vegur\n1 < X-Powered-By: Express\n1 < cf-request-id: 027d7232aa000006622ca9c200000001\n{\"page\":1,\"per_page\":6,\"total\":12,\"total_pages\":2,\"data\":[{\"id\":1,\"name\":\"cerulean\",\"year\":2000,\"color\":\"#98B2D1\",\"pantone_value\":\"15-4020\"},{\"id\":2,\"name\":\"fuchsia rose\",\"year\":2001,\"color\":\"#C74375\",\"pantone_value\":\"17-2031\"},{\"id\":3,\"name\":\"true red\",\"year\":2002,\"color\":\"#BF1932\",\"pantone_value\":\"19-1664\"},{\"id\":4,\"name\":\"aqua sky\",\"year\":2003,\"color\":\"#7BC4C4\",\"pantone_value\":\"14-4811\"},{\"id\":5,\"name\":\"tigerlily\",\"year\":2004,\"color\":\"#E2583E\",\"pantone_value\":\"17-1456\"},{\"id\":6,\"name\":\"blue turquoise\",\"year\":2005,\"color\":\"#53B0AE\",\"pantone_value\":\"15-5217\"}],\"ad\":{\"company\":\"StatusCode Weekly\",\"url\":\"http:\/\/statuscode.org\/\",\"text\":\"A weekly newsletter focusing on software development, infrastructure, the server, performance, and the stack end of things.\"}}","line":36}},{"name":"status 200","result":{"duration":25658,"status":"passed"},"match":{"location":"karate","arguments":[]},"keyword":"Then","line":37}]}],"name":"examples\/users\/users.feature","description":"sample karate test script","id":"sample-karate-test-script","keyword":"Feature","uri":"examples\/users\/users.feature"}]